<?xml version="1.0" encoding="utf-8"?>
<!-- Generator: Adobe Illustrator 16.0.0, SVG Export Plug-In . SVG Version: 6.00 Build 0)  -->
<!DOCTYPE svg PUBLIC "-//W3C//DTD SVG 1.1//EN" "http://www.w3.org/Graphics/SVG/1.1/DTD/svg11.dtd">
<svg version="1.1" id="Layer_1" xmlns="http://www.w3.org/2000/svg" xmlns:xlink="http://www.w3.org/1999/xlink" x="0px" y="0px"
	 width="131px" height="25px" viewBox="0 0 131 25" enable-background="new 0 0 131 25" xml:space="preserve">
<path fill="#FFFFFF" stroke="#FFFFFF" stroke-width="1.5" stroke-miterlimit="10" d="M21.924,23.26v-2.465H4.107v-0.059
	l17.816-7.451V11.79L4.107,4.337V4.278h17.816V1.814H0.688v3.579l16.647,7.1v0.059L0.688,19.594v3.666H21.924z"/>
<path fill="#FFFFFF" stroke="#FFFFFF" stroke-miterlimit="10" d="M38.034,23.404h2.52V5.587h0.06l7.619,17.817h1.53l7.619-17.817
	h0.061v17.817h2.52V2.167h-3.659l-7.259,16.647h-0.06L41.783,2.167h-3.75V23.404z"/>
<path fill="#FFFFFF" stroke="#FFFFFF" stroke-miterlimit="10" d="M65.693,23.404h2.52V2.167h-2.52V23.404z"/>
<path fill="#FFFFFF" stroke="#FFFFFF" stroke-miterlimit="10" d="M91.012,4.957c-1.8-2.34-4.619-3.33-7.499-3.33
	c-6.3,0-10.799,4.92-10.799,11.159c0,6.45,4.71,11.159,10.799,11.159c3.39,0,6.149-1.17,8.038-3.721l-1.889-1.59
	c-1.5,1.92-3.57,2.971-6.149,2.971c-4.77,0-8.099-3.9-8.099-8.819c0-4.649,3.359-8.819,8.099-8.819c2.04,0,4.05,0.87,5.31,2.58
	L91.012,4.957z"/>
<path fill="#FFFFFF" stroke="#FFFFFF" stroke-miterlimit="10" d="M95.514,23.404h2.52V12.605h0.359l10.109,10.799h3.689
	l-11.009-11.549l10.499-9.688h-3.63l-9.659,9.179h-0.359V2.167h-2.52V23.404z"/>
<path fill="#FFFFFF" stroke="#FFFFFF" stroke-miterlimit="10" d="M119.873,23.404h2.52v-9.148l7.919-12.089h-3.03l-6.148,9.599
	l-5.97-9.599h-3.21l7.92,12.089V23.404z"/>
<g>
	<g>
		<path fill-rule="evenodd" clip-rule="evenodd" fill="#FFFFFF" d="M24.688,1v4h4V1H24.688z M24.688,24h4v-4h-4V24z"/>
	</g>
</g>
</svg>
